{"failedCount":0,"prefixedPath":"src\/test\/java\/examples\/users\/token.feature","packageQualifiedName":"src.test.java.examples.users.token","loopIndex":-1,"relativePath":"src\/test\/java\/examples\/users\/token.feature","scenarioResults":[{"sectionIndex":0,"stepResults":[{"result":{"nanos":771800,"millis":0.7718,"status":"passed"},"step":{"background":true,"line":4,"prefix":"*","index":0,"text":"url 'http:\/\/gorest.co.in'"},"stepLog":"18:16:58.907 karate.env system property was: null \n"},{"result":{"nanos":698200,"millis":0.6982,"status":"passed"},"step":{"background":true,"line":5,"prefix":"*","index":1,"text":"header Content-Type = 'application\/json'"}},{"result":{"nanos":553100,"millis":0.5531,"status":"passed"},"step":{"background":true,"line":6,"prefix":"*","index":2,"text":"header Authorization = 'b5f9f45ac229d3774ede1f1fe787a60891b0c63baf41945894e065933b247bf6'"}},{"result":{"nanos":7528000,"millis":7.528,"status":"passed"},"step":{"line":9,"prefix":"Given","index":0,"text":"path '\/public-api\/users'"}},{"result":{"nanos":55550700,"millis":55.5507,"status":"passed"},"step":{"line":10,"prefix":"And","index":1,"text":"request { \"name\":\"Fahad\",\"email\":\"fadi077@gutmann.com\",\"gender\":\"male\",\"status\":\"Active\",\"created_at\":\"2021-03-31T03:50:03.676+05:30\",\"updated_at\":\"2021-03-31T16:59:14.084+05:30\" }"}},{"result":{"nanos":2021255500,"millis":2021.2555,"status":"passed"},"step":{"line":11,"prefix":"When","index":2,"text":"method POST"},"stepLog":"18:16:59.630 request:\n1 > POST http:\/\/gorest.co.in\/public-api\/users\n1 > Content-Type: application\/json; charset=UTF-8\n1 > Authorization: b5f9f45ac229d3774ede1f1fe787a60891b0c63baf41945894e065933b247bf6\n1 > Content-Length: 170\n1 > Host: gorest.co.in\n1 > Connection: Keep-Alive\n1 > User-Agent: Apache-HttpClient\/4.5.13 (Java\/14.0.1)\n1 > Accept-Encoding: gzip,deflate\n{\"gender\":\"male\",\"updated_at\":\"2021-03-31T16:59:14.084+05:30\",\"name\":\"Fahad\",\"created_at\":\"2021-03-31T03:50:03.676+05:30\",\"email\":\"fadi077@gutmann.com\",\"status\":\"Active\"}\n\n18:16:59.936 request:\n2 > POST http:\/\/gorest.co.in\/public-api\/users\n2 > Content-Type: application\/json; charset=UTF-8\n2 > Authorization: b5f9f45ac229d3774ede1f1fe787a60891b0c63baf41945894e065933b247bf6\n2 > Host: gorest.co.in\n2 > Connection: Keep-Alive\n2 > User-Agent: Apache-HttpClient\/4.5.13 (Java\/14.0.1)\n2 > Accept-Encoding: gzip,deflate\n{\"gender\":\"male\",\"updated_at\":\"2021-03-31T16:59:14.084+05:30\",\"name\":\"Fahad\",\"created_at\":\"2021-03-31T03:50:03.676+05:30\",\"email\":\"fadi077@gutmann.com\",\"status\":\"Active\"}\n\n18:17:01.064 response time in milliseconds: 1104\n2 < 200\n2 < Server: nginx\n2 < Date: Wed, 31 Mar 2021 13:17:00 GMT\n2 < Content-Type: application\/json; charset=utf-8\n2 < Transfer-Encoding: chunked\n2 < Connection: keep-alive\n2 < Vary: [Accept-Encoding, Origin]\n2 < X-Frame-Options: [SAMEORIGIN, sameorigin]\n2 < X-XSS-Protection: 1; mode=block\n2 < X-Content-Type-Options: nosniff\n2 < X-Download-Options: noopen\n2 < X-Permitted-Cross-Domain-Policies: none\n2 < Referrer-Policy: strict-origin-when-cross-origin\n2 < ETag: W\/\"7f14b568dc80d38c518dea190e74974c\"\n2 < Cache-Control: max-age=0, private, must-revalidate\n2 < X-Request-Id: 482f60e3-eaac-4328-b468-6d82f07dcadd\n2 < X-Runtime: 0.004474\n2 < Strict-Transport-Security: max-age=31536000; includeSubDomains\n2 < Expect-CT: enforce; max-age=3600\n{\"code\":200,\"data\":[{\"gender\":\"Male\",\"updated_at\":\"2021-03-31T18:22:21.217+05:30\",\"name\":\"Valod patel\",\"created_at\":\"2021-03-31T03:50:03.676+05:30\",\"id\":25,\"email\":\"amb_giri_pillaihjkhjk@gutmann.com\",\"status\":\"Active\"},{\"gender\":\"Female\",\"updated_at\":\"2021-03-31T03:50:04.388+05:30\",\"name\":\"Prof. Aasa Khatri\",\"created_at\":\"2021-03-31T03:50:04.388+05:30\",\"id\":66,\"email\":\"prof_aasa_khatri@bode.org\",\"status\":\"Inactive\"},{\"gender\":\"Female\",\"updated_at\":\"2021-03-31T03:50:04.503+05:30\",\"name\":\"Anand Swarup Rana\",\"created_at\":\"2021-03-31T03:50:04.503+05:30\",\"id\":72,\"email\":\"swarup_anand_rana@murray-goodwin.org\",\"status\":\"Inactive\"},{\"gender\":\"Male\",\"updated_at\":\"2021-03-31T18:20:54.556+05:30\",\"name\":\"Pres. Rati Sahdsdscvdfsv\",\"created_at\":\"2021-03-31T03:50:04.600+05:30\",\"id\":79,\"email\":\"sharma_prsdes_dsfvdfsvrati@jones.biz\",\"status\":\"Active\"},{\"gender\":\"Male\",\"updated_at\":\"2021-03-31T18:24:52.992+05:30\",\"name\":\"Dr. Prem P\",\"created_at\":\"2021-03-31T03:50:04.616+05:30\",\"id\":82,\"email\":\"dr_pillaim@hand.com\",\"status\":\"Active\"},{\"gender\":\"Male\",\"updated_at\":\"2021-03-31T03:50:04.641+05:30\",\"name\":\"Himadri Somayaji\",\"created_at\":\"2021-03-31T03:50:04.641+05:30\",\"id\":83,\"email\":\"somayaji_himadri@smith-doyle.name\",\"status\":\"Inactive\"},{\"gender\":\"Female\",\"updated_at\":\"2021-03-31T03:50:04.645+05:30\",\"name\":\"Elakshi Khanna\",\"created_at\":\"2021-03-31T03:50:04.645+05:30\",\"id\":84,\"email\":\"elakshi_khanna@dubuque-connelly.net\",\"status\":\"Inactive\"},{\"gender\":\"Female\",\"updated_at\":\"2021-03-31T03:50:04.653+05:30\",\"name\":\"Girika Dubashi\",\"created_at\":\"2021-03-31T03:50:04.653+05:30\",\"id\":85,\"email\":\"girika_dubashi@kub-marvin.info\",\"status\":\"Active\"},{\"gender\":\"Female\",\"updated_at\":\"2021-03-31T03:50:04.671+05:30\",\"name\":\"Gaurang Acharya\",\"created_at\":\"2021-03-31T03:50:04.671+05:30\",\"id\":86,\"email\":\"gaurang_acharya@renner-connelly.name\",\"status\":\"Active\"},{\"gender\":\"Female\",\"updated_at\":\"2021-03-31T03:50:04.674+05:30\",\"name\":\"Baalaaditya Chattopadhyay\",\"created_at\":\"2021-03-31T03:50:04.674+05:30\",\"id\":87,\"email\":\"chattopadhyay_baalaaditya@franecki-predovic.name\",\"status\":\"Active\"},{\"gender\":\"Male\",\"updated_at\":\"2021-03-31T03:50:04.684+05:30\",\"name\":\"Ambar Jain\",\"created_at\":\"2021-03-31T03:50:04.684+05:30\",\"id\":88,\"email\":\"ambar_jain@ankunding.org\",\"status\":\"Inactive\"},{\"gender\":\"Male\",\"updated_at\":\"2021-03-31T03:50:04.709+05:30\",\"name\":\"Arya Butt DO\",\"created_at\":\"2021-03-31T03:50:04.709+05:30\",\"id\":89,\"email\":\"butt_do_arya@harris.info\",\"status\":\"Inactive\"},{\"gender\":\"Male\",\"updated_at\":\"2021-03-31T03:50:04.738+05:30\",\"name\":\"Aadi Dutta CPA\",\"created_at\":\"2021-03-31T03:50:04.738+05:30\",\"id\":90,\"email\":\"aadi_dutta_cpa@lubowitz.net\",\"status\":\"Active\"},{\"gender\":\"Female\",\"updated_at\":\"2021-03-31T03:50:04.751+05:30\",\"name\":\"Lai Naik\",\"created_at\":\"2021-03-31T03:50:04.751+05:30\",\"id\":91,\"email\":\"naik_lai@wilkinson.org\",\"status\":\"Active\"},{\"gender\":\"Male\",\"updated_at\":\"2021-03-31T03:50:04.757+05:30\",\"name\":\"Sarvin Shukla\",\"created_at\":\"2021-03-31T03:50:04.757+05:30\",\"id\":92,\"email\":\"sarvin_shukla@stracke.com\",\"status\":\"Active\"},{\"gender\":\"Male\",\"updated_at\":\"2021-03-31T03:50:04.781+05:30\",\"name\":\"Chandramani Bhattathiri\",\"created_at\":\"2021-03-31T03:50:04.781+05:30\",\"id\":93,\"email\":\"bhattathiri_chandramani@jenkins-mcdermott.net\",\"status\":\"Inactive\"},{\"gender\":\"Female\",\"updated_at\":\"2021-03-31T03:50:04.786+05:30\",\"name\":\"Rep. Bilva Kaul\",\"created_at\":\"2021-03-31T03:50:04.786+05:30\",\"id\":94,\"email\":\"kaul_bilva_rep@wuckert-kuhn.name\",\"status\":\"Inactive\"},{\"gender\":\"Male\",\"updated_at\":\"2021-03-31T03:50:04.807+05:30\",\"name\":\"Tarun Varrier Ret.\",\"created_at\":\"2021-03-31T03:50:04.807+05:30\",\"id\":95,\"email\":\"varrier_tarun_ret@hermiston-connelly.name\",\"status\":\"Inactive\"},{\"gender\":\"Female\",\"updated_at\":\"2021-03-31T03:50:04.812+05:30\",\"name\":\"Dhanalakshmi Nehru\",\"created_at\":\"2021-03-31T03:50:04.812+05:30\",\"id\":96,\"email\":\"nehru_dhanalakshmi@koch.co\",\"status\":\"Inactive\"},{\"gender\":\"Male\",\"updated_at\":\"2021-03-31T03:50:04.815+05:30\",\"name\":\"Suma Chopra\",\"created_at\":\"2021-03-31T03:50:04.815+05:30\",\"id\":97,\"email\":\"suma_chopra@nienow.net\",\"status\":\"Active\"}],\"meta\":{\"pagination\":{\"total\":1439,\"pages\":72,\"limit\":20,\"page\":1}}}\n"},{"result":{"nanos":85500,"millis":0.0855,"status":"passed"},"step":{"line":12,"prefix":"Then","index":3,"text":"status 200"}}],"executorName":"main","line":8,"name":"Create a user","description":"","durationMillis":2086.4428,"startTime":1617196618647,"failed":false,"refId":"[1:8]","endTime":1617196621080,"exampleIndex":-1}],"callDepth":0,"name":"check generated token by API","description":"","resultDate":"2021-03-31 06:17:01 PM","durationMillis":2086.4428,"passedCount":1}