{"failedCount":0,"prefixedPath":"src\/test\/java\/examples\/users\/users.feature","packageQualifiedName":"src.test.java.examples.users.users","loopIndex":-1,"relativePath":"src\/test\/java\/examples\/users\/users.feature","scenarioResults":[{"sectionIndex":0,"stepResults":[{"result":{"nanos":912300,"millis":0.9123,"status":"passed"},"step":{"background":true,"line":5,"prefix":"*","index":0,"text":"url 'https:\/\/gorest.co.in'"},"stepLog":"19:15:12.800 karate.env system property was: null \n"},{"result":{"nanos":6853600,"millis":6.8536,"status":"passed"},"step":{"line":8,"prefix":"Given","index":0,"text":"path '\/public-api\/users'"}},{"result":{"nanos":2069581800,"millis":2069.5818,"status":"passed"},"step":{"line":9,"prefix":"When","index":1,"text":"method get"},"stepLog":"19:15:13.517 request:\n1 > GET https:\/\/gorest.co.in\/public-api\/users\n1 > Host: gorest.co.in\n1 > Connection: Keep-Alive\n1 > User-Agent: Apache-HttpClient\/4.5.13 (Java\/14.0.1)\n1 > Accept-Encoding: gzip,deflate\n\n\n19:15:14.923 response time in milliseconds: 1371\n1 < 200\n1 < Server: nginx\n1 < Date: Wed, 24 Mar 2021 14:15:14 GMT\n1 < Content-Type: application\/json; charset=utf-8\n1 < Transfer-Encoding: chunked\n1 < Connection: keep-alive\n1 < Vary: [Accept-Encoding, Origin]\n1 < X-Frame-Options: [SAMEORIGIN, sameorigin]\n1 < X-XSS-Protection: 1; mode=block\n1 < X-Content-Type-Options: nosniff\n1 < X-Download-Options: noopen\n1 < X-Permitted-Cross-Domain-Policies: none\n1 < Referrer-Policy: strict-origin-when-cross-origin\n1 < ETag: W\/\"4ee6b9dd6af75c98b80d91c3be8149e8\"\n1 < Cache-Control: max-age=0, private, must-revalidate\n1 < X-Request-Id: cbf3eef5-0a4e-413a-a8b5-690196834c68\n1 < X-Runtime: 0.004385\n1 < Strict-Transport-Security: max-age=31536000; includeSubDomains\n1 < Expect-CT: enforce; max-age=3600\n{\"code\":200,\"data\":[{\"gender\":\"Male\",\"updated_at\":\"2021-03-24T19:41:40.246+05:30\",\"name\":\"Ivan\",\"created_at\":\"2021-03-24T03:50:05.342+05:30\",\"id\":94,\"email\":\"zzz\",\"status\":\"Active\"},{\"gender\":\"Male\",\"updated_at\":\"2021-03-24T03:50:05.347+05:30\",\"name\":\"Priya Ganaka\",\"created_at\":\"2021-03-24T03:50:05.347+05:30\",\"id\":95,\"email\":\"priya_ganaka@torphy-stracke.net\",\"status\":\"Active\"},{\"gender\":\"Male\",\"updated_at\":\"2021-03-24T03:50:05.359+05:30\",\"name\":\"Budhil Mahajan\",\"created_at\":\"2021-03-24T03:50:05.359+05:30\",\"id\":96,\"email\":\"mahajan_budhil@lubowitz.co\",\"status\":\"Inactive\"},{\"gender\":\"Male\",\"updated_at\":\"2021-03-24T03:50:05.379+05:30\",\"name\":\"Shreya Kocchar\",\"created_at\":\"2021-03-24T03:50:05.379+05:30\",\"id\":97,\"email\":\"kocchar_shreya@kilback.com\",\"status\":\"Active\"},{\"gender\":\"Male\",\"updated_at\":\"2021-03-24T03:50:05.399+05:30\",\"name\":\"Prof. Abhaidev Varma\",\"created_at\":\"2021-03-24T03:50:05.399+05:30\",\"id\":98,\"email\":\"abhaidev_prof_varma@yundt-bergnaum.com\",\"status\":\"Inactive\"},{\"gender\":\"Male\",\"updated_at\":\"2021-03-24T03:50:05.417+05:30\",\"name\":\"Bhoopati Ahuja\",\"created_at\":\"2021-03-24T03:50:05.417+05:30\",\"id\":99,\"email\":\"ahuja_bhoopati@rogahn.net\",\"status\":\"Active\"},{\"gender\":\"Male\",\"updated_at\":\"2021-03-24T18:48:13.620+05:30\",\"name\":\"Tanushri Gupta\",\"created_at\":\"2021-03-24T03:50:05.430+05:30\",\"id\":100,\"email\":\"phd_namboothiri_bhamini@breitenberg-marks.co\",\"status\":\"Inactive\"},{\"gender\":\"Female\",\"updated_at\":\"2021-03-24T03:50:05.453+05:30\",\"name\":\"Ganapati Arora Sr.\",\"created_at\":\"2021-03-24T03:50:05.453+05:30\",\"id\":101,\"email\":\"sr_arora_ganapati@rau.com\",\"status\":\"Inactive\"},{\"gender\":\"Male\",\"updated_at\":\"2021-03-24T03:50:05.476+05:30\",\"name\":\"Anjushree Marar\",\"created_at\":\"2021-03-24T03:50:05.476+05:30\",\"id\":102,\"email\":\"marar_anjushree@hammes-pacocha.co\",\"status\":\"Active\"},{\"gender\":\"Female\",\"updated_at\":\"2021-03-24T13:09:29.863+05:30\",\"name\":\"Amrit Jain2\",\"created_at\":\"2021-03-24T03:50:05.498+05:30\",\"id\":103,\"email\":\"jain_amrit@hermiston.io\",\"status\":\"Active\"},{\"gender\":\"Male\",\"updated_at\":\"2021-03-24T03:50:05.506+05:30\",\"name\":\"Sudeva Sharma Esq.\",\"created_at\":\"2021-03-24T03:50:05.506+05:30\",\"id\":104,\"email\":\"sudeva_sharma_esq@prohaska.io\",\"status\":\"Active\"},{\"gender\":\"Female\",\"updated_at\":\"2021-03-24T03:50:05.526+05:30\",\"name\":\"Mr. Leela Pilla\",\"created_at\":\"2021-03-24T03:50:05.526+05:30\",\"id\":105,\"email\":\"leela_mr_pilla@homenick.co\",\"status\":\"Inactive\"},{\"gender\":\"Male\",\"updated_at\":\"2021-03-24T03:50:05.546+05:30\",\"name\":\"Tushar Kakkar\",\"created_at\":\"2021-03-24T03:50:05.546+05:30\",\"id\":106,\"email\":\"kakkar_tushar@christiansen.net\",\"status\":\"Inactive\"},{\"gender\":\"Female\",\"updated_at\":\"2021-03-24T03:50:05.556+05:30\",\"name\":\"Dharmaketu Somayaji\",\"created_at\":\"2021-03-24T03:50:05.556+05:30\",\"id\":107,\"email\":\"dharmaketu_somayaji@feeney.name\",\"status\":\"Inactive\"},{\"gender\":\"Male\",\"updated_at\":\"2021-03-24T03:50:05.578+05:30\",\"name\":\"Tanushri Gupta\",\"created_at\":\"2021-03-24T03:50:05.578+05:30\",\"id\":108,\"email\":\"gupta_tanushri@cormier-graham.co\",\"status\":\"Active\"},{\"gender\":\"Male\",\"updated_at\":\"2021-03-24T03:50:05.598+05:30\",\"name\":\"Chandini Jha\",\"created_at\":\"2021-03-24T03:50:05.598+05:30\",\"id\":109,\"email\":\"chandini_jha@mann-casper.biz\",\"status\":\"Inactive\"},{\"gender\":\"Female\",\"updated_at\":\"2021-03-24T03:50:05.608+05:30\",\"name\":\"Girindra Kaur\",\"created_at\":\"2021-03-24T03:50:05.608+05:30\",\"id\":110,\"email\":\"girindra_kaur@ebert.net\",\"status\":\"Active\"},{\"gender\":\"Female\",\"updated_at\":\"2021-03-24T03:50:05.614+05:30\",\"name\":\"Prof. Aashritha Shah\",\"created_at\":\"2021-03-24T03:50:05.614+05:30\",\"id\":111,\"email\":\"shah_prof_aashritha@upton.biz\",\"status\":\"Active\"},{\"gender\":\"Female\",\"updated_at\":\"2021-03-24T03:50:05.617+05:30\",\"name\":\"Somnath Saini\",\"created_at\":\"2021-03-24T03:50:05.617+05:30\",\"id\":112,\"email\":\"saini_somnath@friesen.org\",\"status\":\"Active\"},{\"gender\":\"Male\",\"updated_at\":\"2021-03-24T03:50:05.623+05:30\",\"name\":\"Chidaakaash Nambeesan PhD\",\"created_at\":\"2021-03-24T03:50:05.623+05:30\",\"id\":113,\"email\":\"chidaakaash_phd_nambeesan@kautzer-ziemann.io\",\"status\":\"Active\"}],\"meta\":{\"pagination\":{\"total\":1474,\"pages\":74,\"limit\":20,\"page\":1}}}\n"},{"result":{"nanos":42200,"millis":0.0422,"status":"passed"},"step":{"line":10,"prefix":"Then","index":2,"text":"status 200"}}],"executorName":"main","line":7,"name":"get all users","description":"","durationMillis":2077.3899,"startTime":1616595312561,"failed":false,"refId":"[1:7]","endTime":1616595314926,"exampleIndex":-1}],"callDepth":0,"name":"Check returned users from API","description":"for help, see: https:\/\/github.com\/intuit\/karate\/wiki\/IDE-Support","resultDate":"2021-03-24 07:15:14 PM","durationMillis":2077.3899,"passedCount":1}